EventId/I:Bx:FEId:L1Id:LatencyError:BufferOverflow:PipelineAddress:Hit
0 560 2 1 0 0 0 208
0 560 2 1 0 0 0 210
0 560 2 1 0 0 0 211
0 560 2 1 0 0 0 213
0 560 3 1 0 0 0 230
0 560 3 1 0 0 0 231
0 560 3 1 0 0 0 232
0 560 3 1 0 0 0 233
0 560 5 1 0 0 0 80
0 560 5 1 0 0 0 82
0 560 5 1 0 0 0 118
0 560 5 1 0 0 0 120
0 560 5 1 0 0 0 125
0 560 5 1 0 0 0 127
0 560 6 1 0 0 0 94
0 560 6 1 0 0 0 96
0 560 6 1 0 0 0 97
0 560 6 1 0 0 0 99
0 560 6 1 0 0 0 197
0 560 6 1 0 0 0 199
0 560 6 1 0 0 0 206
0 560 6 1 0 0 0 208
0 560 6 1 0 0 0 213
0 560 6 1 0 0 0 215
0 560 6 1 0 0 0 220
0 560 6 1 0 0 0 222
0 560 6 1 0 0 0 223
0 560 6 1 0 0 0 225
0 560 7 1 0 0 0 11
0 560 7 1 0 0 0 13
0 560 7 1 0 0 0 94
0 560 7 1 0 0 0 96
1 598 2 2 0 0 0 74
1 598 2 2 0 0 0 76
1 598 2 2 0 0 0 79
1 598 2 2 0 0 0 81
1 598 3 2 0 0 0 70
1 598 3 2 0 0 0 72
1 598 4 2 0 0 0 223
1 598 4 2 0 0 0 225
1 598 5 2 0 0 0 37
1 598 5 2 0 0 0 38
1 598 5 2 0 0 0 39
1 598 5 2 0 0 0 40
2 732 0 3 0 0 0 127
2 732 0 3 0 0 0 129
2 732 1 3 0 0 0 152
2 732 1 3 0 0 0 153
2 732 1 3 0 0 0 154
2 732 1 3 0 0 0 155
2 732 1 3 0 0 0 176
2 732 1 3 0 0 0 178
2 732 3 3 0 0 0 30
2 732 3 3 0 0 0 32
2 732 3 3 0 0 0 37
2 732 3 3 0 0 0 39
2 732 3 3 0 0 0 48
2 732 3 3 0 0 0 50
2 732 3 3 0 0 0 125
2 732 3 3 0 0 0 127
2 732 7 3 0 0 0 84
2 732 7 3 0 0 0 86
2 732 7 3 0 0 0 247
2 732 7 3 0 0 0 249
3 735 0 0 0 0 0 107
3 735 0 0 0 0 0 109
3 735 1 0 0 0 0 132
3 735 1 0 0 0 0 133
3 735 1 0 0 0 0 134
3 735 1 0 0 0 0 135
3 735 1 0 0 0 0 156
3 735 1 0 0 0 0 158
3 735 3 0 0 0 0 10
3 735 3 0 0 0 0 12
3 735 3 0 0 0 0 17
3 735 3 0 0 0 0 19
3 735 3 0 0 0 0 28
3 735 3 0 0 0 0 30
3 735 3 0 0 0 0 105
3 735 3 0 0 0 0 107
3 735 7 0 0 0 0 64
3 735 7 0 0 0 0 66
3 735 7 0 0 0 0 227
3 735 7 0 0 0 0 229
4 786 0 4 0 0 0 134
4 786 0 4 0 0 0 135
4 786 0 4 0 0 0 136
4 786 0 4 0 0 0 137
4 786 1 4 0 0 0 26
4 786 1 4 0 0 0 28
4 786 1 4 0 0 0 33
4 786 1 4 0 0 0 35
4 786 2 4 0 0 0 101
4 786 2 4 0 0 0 102
4 786 2 4 0 0 0 103
4 786 2 4 0 0 0 104
4 786 4 4 0 0 0 189
4 786 4 4 0 0 0 190
4 786 4 4 0 0 0 191
4 786 4 4 0 0 0 192
4 786 4 4 0 0 0 217
4 786 4 4 0 0 0 218
4 786 4 4 0 0 0 219
4 786 4 4 0 0 0 220
4 786 5 4 0 0 0 102
4 786 5 4 0 0 0 104
4 786 5 4 0 0 0 217
4 786 5 4 0 0 0 219
4 786 5 4 0 0 0 222
4 786 5 4 0 0 0 224
4 786 6 4 0 0 0 96
4 786 6 4 0 0 0 98
4 786 6 4 0 0 0 109
4 786 6 4 0 0 0 111
4 786 6 4 0 0 0 112
4 786 6 4 0 0 0 114
4 786 6 4 0 0 0 139
4 786 6 4 0 0 0 141
4 786 7 4 0 0 0 175
4 786 7 4 0 0 0 177
5 876 1 5 0 0 0 182
5 876 1 5 0 0 0 184
5 876 1 5 0 0 0 187
5 876 1 5 0 0 0 189
5 876 2 5 0 0 0 83
5 876 2 5 0 0 0 85
5 876 2 5 0 0 0 205
5 876 2 5 0 0 0 206
5 876 2 5 0 0 0 207
5 876 2 5 0 0 0 208
5 876 3 5 0 0 0 83
5 876 3 5 0 0 0 85
5 876 3 5 0 0 0 108
5 876 3 5 0 0 0 110
5 876 3 5 0 0 0 165
5 876 3 5 0 0 0 167
5 876 4 5 0 0 0 224
5 876 4 5 0 0 0 226
5 876 5 5 0 0 0 60
5 876 5 5 0 0 0 62
5 876 5 5 0 0 0 151
5 876 5 5 0 0 0 153
6 1018 1 6 0 0 0 73
6 1018 1 6 0 0 0 75
6 1018 2 6 0 0 0 103
6 1018 2 6 0 0 0 105
6 1018 2 6 0 0 0 238
6 1018 2 6 0 0 0 240
6 1018 2 6 0 0 0 246
6 1018 2 6 0 0 0 248
6 1018 2 6 0 0 0 249
6 1018 2 6 0 0 0 251
6 1018 3 6 0 0 0 238
6 1018 3 6 0 0 0 240
6 1018 5 6 0 0 0 147
6 1018 5 6 0 0 0 149
6 1018 5 6 0 0 0 201
6 1018 5 6 0 0 0 202
6 1018 5 6 0 0 0 203
6 1018 5 6 0 0 0 204
6 1018 6 6 0 0 0 234
6 1018 6 6 0 0 0 236
6 1018 7 6 0 0 0 30
6 1018 7 6 0 0 0 32
6 1018 7 6 0 0 0 55
6 1018 7 6 0 0 0 57
6 1018 7 6 0 0 0 240
6 1018 7 6 0 0 0 242
7 1020 1 0 0 0 0 54
7 1020 1 0 0 0 0 56
7 1020 2 0 0 0 0 84
7 1020 2 0 0 0 0 86
7 1020 2 0 0 0 0 219
7 1020 2 0 0 0 0 221
7 1020 2 0 0 0 0 227
7 1020 2 0 0 0 0 229
7 1020 2 0 0 0 0 230
7 1020 2 0 0 0 0 232
7 1020 3 0 0 0 0 219
7 1020 3 0 0 0 0 221
7 1020 5 0 0 0 0 128
7 1020 5 0 0 0 0 130
7 1020 5 0 0 0 0 182
7 1020 5 0 0 0 0 183
7 1020 5 0 0 0 0 184
7 1020 5 0 0 0 0 185
7 1020 6 0 0 0 0 215
7 1020 6 0 0 0 0 217
7 1020 7 0 0 0 0 11
7 1020 7 0 0 0 0 13
7 1020 7 0 0 0 0 36
7 1020 7 0 0 0 0 38
7 1020 7 0 0 0 0 221
7 1020 7 0 0 0 0 223
8 1225 0 7 0 0 0 1
8 1225 0 7 0 0 0 73
8 1225 0 7 0 0 0 75
8 1225 0 7 0 0 0 102
8 1225 0 7 0 0 0 104
8 1225 0 7 0 0 0 108
8 1225 0 7 0 0 0 110
8 1225 1 7 0 0 0 253
8 1225 2 7 0 0 0 13
8 1225 2 7 0 0 0 15
8 1225 2 7 0 0 0 16
8 1225 2 7 0 0 0 18
8 1225 2 7 0 0 0 20
8 1225 2 7 0 0 0 86
8 1225 2 7 0 0 0 88
8 1225 2 7 0 0 0 191
8 1225 2 7 0 0 0 193
8 1225 2 7 0 0 0 247
8 1225 2 7 0 0 0 249
8 1225 3 7 0 0 0 79
8 1225 3 7 0 0 0 81
8 1225 4 7 0 0 0 162
8 1225 4 7 0 0 0 164
8 1225 4 7 0 0 0 167
8 1225 4 7 0 0 0 169
8 1225 6 7 0 0 0 17
8 1225 6 7 0 0 0 19
8 1225 6 7 0 0 0 52
8 1225 6 7 0 0 0 54
8 1225 6 7 0 0 0 104
8 1225 6 7 0 0 0 106
8 1225 6 7 0 0 0 109
8 1225 6 7 0 0 0 111
10 1263 1 8 0 0 0 229
10 1263 1 8 0 0 0 231
10 1263 1 8 0 0 0 234
10 1263 1 8 0 0 0 236
10 1263 3 8 0 0 0 202
10 1263 3 8 0 0 0 204
10 1263 3 8 0 0 0 207
10 1263 3 8 0 0 0 209
10 1263 5 8 0 0 0 56
10 1263 5 8 0 0 0 58
10 1263 5 8 0 0 0 63
10 1263 5 8 0 0 0 65
10 1263 5 8 0 0 0 153
10 1263 5 8 0 0 0 155
