EventIdCIC/I:CICStatus:BxCBC:Latency:StubsAtInput:StubsPerFE/F:MaxStubsPerFE:StubsPerEvent:MatchedStubs:DetectionEfficiency/F
0 0 306 15 7 1.5 2 9 7 0.7777777777777779
1 0 312 15 10 1.5 2 9 10 0.9494949494949495
2 0 320 15 7 1.5714285714285714 3 11 7 0.8441558441558441
3 0 342 3 15 2.857142857142857 5 20 1 0.05
3 0 328 15 15 1.4 2 7 15 1.1785714285714286
4 1 336 15 16 2.2857142857142856 4 16 15 0.8
5 0 344 15 12 2.857142857142857 5 20 12 0.975
6 0 352 15 10 1.6 3 8 10 1.0113636363636365
7 0 360 15 13 1.8333333333333333 3 11 13 0.8136363636363637
8 0 368 15 11 2.857142857142857 10 20 11 0.9166666666666665
9 1 376 15 16 1.5 3 9 16 1.0980392156862746
10 0 384 15 8 2.125 4 17 8 0.7320261437908496
11 1 408 2 16 1.4285714285714286 2 10 1 0.1
11 1 393 15 16 1.8 3 9 16 1.0444444444444445
12 0 400 15 7 2.5 9 20 7 0.65
13 0 408 15 8 1.4285714285714286 2 10 7 0.9666666666666666
14 0 416 15 13 1.5 3 6 13 1.1190476190476188
15 0 425 15 16 1.75 3 14 16 1.0809523809523809
16 0 433 15 8 2.5 5 15 8 0.8833333333333333
17 0 440 15 7 1.6 3 8 7 1.0833333333333333
18 0 449 15 11 1.5 2 6 11 1.075757575757576
19 0 457 15 4 1.5714285714285714 3 11 4 0.5909090909090908
20 0 464 15 13 1.2 2 6 13 1.3333333333333333
21 0 472 15 8 2.4 4 12 8 0.7121212121212122
22 0 481 15 13 1.5714285714285714 2 11 13 1.1818181818181817
23 0 488 15 9 2.2 5 11 9 1.0227272727272727
24 0 496 15 7 2.0 3 8 7 1.0833333333333333
25 0 505 15 8 1.2 2 6 8 0.9444444444444444
26 0 512 15 13 1.8 2 9 13 1.2222222222222223
27 0 523 15 10 1.8333333333333333 3 11 10 0.9090909090909091
28 0 528 15 5 1.8333333333333333 3 11 5 0.49090909090909085
29 1 536 15 16 2.0 3 10 16 1.147058823529412
30 1 544 15 16 2.8333333333333335 4 17 16 1.1221719457013575
31 0 552 15 11 1.625 3 13 11 0.9038461538461539
32 0 561 15 8 2.0 4 12 8 0.875
33 0 569 15 15 1.6 4 8 15 1.1749999999999998
34 0 576 15 14 2.142857142857143 3 15 14 0.9333333333333335
35 0 584 15 7 1.875 4 15 7 1.2666666666666666
36 0 594 15 6 2.3333333333333335 3 7 6 0.857142857142857
37 0 600 15 9 2.3333333333333335 3 7 9 0.9428571428571428
37 0 394 227 9 2.5 9 20 1 0.05
38 0 608 15 8 1.4285714285714286 3 10 8 0.8
39 0 616 15 12 1.6666666666666667 3 10 12 1.1272727272727272
40 0 624 15 11 2.2 4 11 11 1.0
41 0 632 15 13 1.5714285714285714 3 11 13 0.9870129870129869
42 0 640 15 13 2.0 4 14 13 1.1857142857142857
43 0 648 15 7 2.0 5 10 7 0.85
44 0 657 15 13 1.6 3 8 13 1.0357142857142856
45 0 664 15 9 1.75 3 14 9 0.9642857142857143
46 0 672 15 13 2.0 3 8 13 1.0357142857142856
47 0 680 15 13 2.0 4 14 13 1.0476190476190477
48 0 688 15 9 1.7142857142857142 3 12 9 0.9444444444444445
49 0 696 15 6 1.2857142857142858 2 9 6 0.8888888888888888
50 0 704 15 7 1.5 3 6 7 1.0476190476190477
51 0 712 15 6 1.4 2 7 6 1.0857142857142856
52 0 720 15 8 1.0 1 5 8 0.9777777777777776
53 0 729 15 13 1.5 3 9 13 1.007936507936508
54 0 736 15 7 1.75 2 14 7 0.7142857142857143
55 0 745 15 10 1.3333333333333333 2 8 10 1.25
56 0 753 15 10 1.6 3 8 10 0.9772727272727273
57 0 760 15 12 1.5714285714285714 3 11 12 1.0909090909090908
58 0 768 15 9 1.8333333333333333 3 11 9 0.9595959595959596
59 0 777 15 12 1.5 3 9 12 0.9365079365079365
60 0 784 15 8 2.0 3 14 8 0.9523809523809523
60 0 378 427 8 2.125 4 17 1 0.058823529411764705
61 0 792 15 7 1.2 2 6 7 0.8888888888888888
62 0 800 15 8 1.5 2 9 8 1.0158730158730158
63 0 808 15 11 1.4 3 7 11 1.4285714285714286
64 0 818 15 8 1.3333333333333333 2 8 8 1.0
65 0 827 15 9 1.8571428571428572 4 13 9 0.6923076923076924
66 0 832 15 6 1.8571428571428572 4 13 6 0.9743589743589742
67 0 840 15 6 1.5 2 3 6 1.1666666666666665
68 0 848 15 4 1.2 2 6 4 0.5952380952380952
69 0 856 15 11 1.1666666666666667 2 7 11 1.349206349206349
70 0 864 15 9 2.25 4 9 9 1.0
71 0 872 15 12 1.2857142857142858 2 9 12 0.9914529914529915
72 0 881 15 9 2.6 3 13 9 1.0879120879120878
73 0 888 15 10 1.4 2 7 10 0.8928571428571428
74 0 897 15 7 2.4 3 12 7 0.8214285714285714
75 0 904 15 10 1.75 3 7 10 1.3035714285714286
76 0 913 15 5 1.1428571428571428 2 8 5 0.7916666666666666
77 0 920 15 12 2.0 3 6 12 1.1666666666666667
78 0 928 15 7 3.0 5 12 7 0.7916666666666666
79 0 936 15 8 1.6 2 8 8 1.0892857142857142
80 0 944 15 7 1.4 2 7 7 0.9107142857142857
81 0 952 15 12 1.3333333333333333 2 8 12 1.125
82 0 960 15 9 1.7142857142857142 3 12 9 0.9166666666666665
83 0 968 15 14 1.2857142857142858 3 9 14 1.0666666666666667
84 0 976 15 11 2.142857142857143 4 15 11 1.0444444444444443
85 0 984 15 10 1.2857142857142858 3 9 10 0.9494949494949496
86 0 992 15 12 1.8333333333333333 5 11 12 1.2727272727272725
87 0 1002 15 5 1.5 2 6 5 0.8333333333333333
88 0 1008 15 8 1.5 2 6 8 0.7051282051282052
89 0 1016 15 11 2.1666666666666665 5 13 11 1.1758241758241756
90 0 1024 15 8 1.75 2 7 8 1.1428571428571428
91 0 1033 15 7 2.3333333333333335 3 7 7 0.6883116883116884
92 0 1040 15 13 1.5714285714285714 2 11 13 1.2545454545454546
93 0 1048 15 10 1.6666666666666667 4 10 10 1.088888888888889
94 0 1057 15 9 1.5 3 9 9 1.1111111111111112
95 0 1066 15 9 1.8571428571428572 4 13 9 0.6923076923076924
96 0 1072 15 12 1.8571428571428572 4 13 12 1.1076923076923075
97 0 1080 15 12 2.0 3 10 12 1.0333333333333332
98 0 1089 15 13 1.7142857142857142 3 12 13 1.0833333333333333
99 0 1097 15 6 1.7142857142857142 3 12 6 0.7083333333333333
100 0 1104 15 12 1.3333333333333333 2 8 12 1.0178571428571428
101 0 1112 15 12 2.0 4 14 12 1.3571428571428568
102 0 1124 15 1 1.0 1 4 1 0.25
103 0 1128 15 9 1.0 1 4 9 1.1785714285714284
104 1 1136 15 16 2.0 4 14 16 1.1428571428571428
105 0 1144 15 15 2.3333333333333335 4 14 15 1.0714285714285712
106 0 1152 15 9 2.3333333333333335 4 14 9 0.8412698412698414
107 0 1160 15 9 1.8 3 9 9 1.1587301587301586
108 0 1169 15 10 1.1666666666666667 2 7 10 0.9010989010989011
109 0 1176 15 14 2.1666666666666665 4 13 14 0.8131868131868132
110 1 1184 15 16 3.5 8 21 16 0.9999999999999999
111 0 1192 15 12 1.75 4 14 12 0.901098901098901
112 0 1200 15 10 1.625 4 13 10 1.098901098901099
113 0 1208 15 7 1.1666666666666667 2 7 7 0.7857142857142856
114 1 1230 2 16 1.8 3 9 1 0.1111111111111111
114 1 1216 15 16 1.4285714285714286 3 10 16 1.0666666666666667
114 1 367 870 16 2.857142857142857 10 20 1 0.05
115 0 1224 15 11 2.5714285714285716 4 18 10 0.8888888888888888
116 0 1233 15 7 1.8 3 9 7 1.0555555555555554
117 0 1240 15 5 1.0 1 6 5 1.1666666666666665
118 0 1250 15 6 2.0 4 10 6 0.6000000000000001
119 0 1256 15 14 2.0 4 10 14 1.2333333333333334
120 0 1265 15 7 2.0 3 12 7 0.6666666666666666
121 0 1272 15 13 1.6666666666666667 2 10 13 1.2272727272727273
122 0 1280 15 10 2.2 5 11 10 0.9090909090909092
123 0 1288 15 11 1.8333333333333333 2 11 11 1.0636363636363637
124 0 1296 15 14 2.0 3 10 14 1.0333333333333334
125 0 1304 15 9 2.142857142857143 3 15 9 0.9809523809523808
126 0 1312 15 7 1.75 3 7 7 0.9999999999999998
127 0 1320 15 9 2.3333333333333335 3 7 9 0.9857142857142855
128 0 1328 15 13 1.6666666666666667 2 10 13 1.0692307692307692
129 0 1336 15 16 2.1666666666666665 5 13 16 1.0432692307692308
130 0 1344 15 13 2.0 3 16 13 0.8541666666666666
131 0 1352 15 13 2.5 6 15 13 0.7803921568627452
132 0 1360 15 13 2.4285714285714284 5 17 13 1.0529411764705883
133 0 1368 15 10 1.4285714285714286 2 10 10 0.9363636363636365
134 0 1376 15 14 1.5714285714285714 2 11 14 1.1328671328671327
135 0 1384 15 16 1.8571428571428572 3 13 16 1.1593406593406592
136 0 1393 15 10 1.75 3 14 10 0.8896103896103897
137 1 1400 15 16 1.8333333333333333 3 11 16 1.0568181818181819
138 0 1409 15 9 2.0 4 16 9 0.9513888888888888
139 0 1416 15 8 1.8 3 9 8 0.6944444444444444
140 0 1424 15 11 1.7142857142857142 3 12 11 1.2738095238095237
141 0 1432 15 4 1.75 3 7 4 0.7428571428571429
142 0 1440 15 6 1.25 2 5 6 1.2
143 0 1448 15 3 1.25 2 5 3 0.7
144 0 1456 15 8 1.0 1 4 8 1.1666666666666667
145 0 1479 4 12 1.6666666666666667 3 10 1 0.1
145 0 1464 15 12 1.8 3 9 12 0.8958333333333333
146 0 1473 15 13 2.0 4 16 12 0.9375
147 0 1481 15 15 1.6666666666666667 3 10 15 1.011111111111111
148 0 1488 15 10 2.5714285714285716 9 18 10 0.7264957264957266
149 0 1496 15 12 1.625 3 13 12 1.2596153846153846
150 1 1506 15 16 2.75 4 22 16 0.7272727272727273
151 0 1513 15 6 2.75 4 22 6 0.8909090909090909
152 0 1520 15 7 1.6666666666666667 2 5 7 0.8
153 1 1528 15 16 1.6666666666666667 3 10 16 1.1058823529411765
154 0 1536 15 11 2.4285714285714284 5 17 11 1.1102941176470589
155 0 1544 15 3 1.6 3 8 3 0.45833333333333326
156 0 1552 15 9 1.5 3 6 9 1.5000000000000002
157 0 1568 9 11 2.3333333333333335 5 14 1 0.07142857142857142
157 0 1561 15 11 1.5 2 6 11 0.8809523809523809
158 0 1568 15 13 2.3333333333333335 5 14 12 1.1142857142857143
159 0 1577 15 4 1.6666666666666667 2 10 4 0.4
160 0 1584 15 16 1.6666666666666667 3 10 16 1.2999999999999998
161 0 1604 6 13 1.3333333333333333 2 8 1 0.125
161 0 1592 15 13 2.142857142857143 5 15 13 1.0363636363636364
162 0 1600 15 11 2.2 3 11 10 1.1136363636363638
162 0 1511 106 11 2.75 4 22 1 0.045454545454545456
163 0 1608 15 4 1.3333333333333333 2 8 4 0.875
164 0 1617 15 9 1.0 1 4 9 1.05
165 0 1624 15 8 1.6666666666666667 3 10 8 0.95
166 0 1632 15 8 1.6 4 8 8 0.6029411764705883
167 0 1640 15 8 3.4 9 17 8 1.0441176470588236
168 0 1648 15 10 1.0 1 4 10 0.9423076923076923
169 0 1656 15 12 2.1666666666666665 4 13 12 1.3076923076923077
170 0 1679 7 7 3.4 11 17 1 0.058823529411764705
170 0 1666 15 7 1.7142857142857142 3 12 7 0.5833333333333333
171 0 1672 15 15 1.7142857142857142 3 12 14 0.946078431372549
172 0 1681 15 6 3.4 11 17 6 0.6838235294117647
173 0 1688 15 14 1.3333333333333333 2 8 14 1.2916666666666665
174 0 1696 15 6 2.0 3 12 6 0.7083333333333333
175 0 1704 15 11 1.6 4 8 11 1.2638888888888888
175 0 537 1189 11 2.0 3 10 1 0.1
176 0 1713 15 9 1.5 3 9 9 0.8383838383838385
177 0 1721 15 12 2.2 5 11 12 1.272727272727273
178 0 1730 15 7 1.8 3 9 7 0.7777777777777777
179 0 1736 15 12 1.8 3 9 12 0.9914529914529915
180 0 1744 15 13 1.8571428571428572 4 13 13 0.8974358974358974
180 0 1506 257 13 2.75 4 22 1 0.045454545454545456
181 0 1752 15 15 1.875 3 15 15 1.2424242424242424
182 0 1760 15 14 1.8333333333333333 3 11 14 0.9575757575757575
183 0 1768 15 9 2.142857142857143 3 15 9 0.7166666666666667
184 0 1787 8 15 1.6 2 8 1 0.125
184 0 1776 15 15 2.0 4 12 15 1.0833333333333335
185 0 1784 15 12 2.142857142857143 5 15 11 1.0833333333333335
186 0 1792 15 8 1.6 2 8 8 0.825
187 0 1800 15 13 1.4285714285714286 3 10 13 1.2090909090909092
187 0 1217 601 13 1.4285714285714286 3 10 1 0.1
188 0 1809 15 8 1.8333333333333333 4 11 8 0.6742424242424243
189 0 1816 15 14 1.7142857142857142 3 12 14 1.1089743589743588
190 0 1824 15 15 1.8571428571428572 3 13 15 1.0934065934065935
191 0 1832 15 12 2.0 4 14 12 0.8571428571428571
192 0 1840 15 12 2.0 4 14 12 1.1349206349206349
193 0 1848 15 11 1.2857142857142858 3 9 11 0.8222222222222222
194 0 1856 15 14 2.142857142857143 4 15 14 1.0153846153846153
195 0 1864 15 13 2.1666666666666665 5 13 13 1.1846153846153846
196 0 1872 15 12 1.6666666666666667 4 10 12 1.0333333333333334
197 0 1880 15 10 2.0 5 12 10 0.893939393939394
198 0 1889 15 9 1.5714285714285714 3 11 9 1.0227272727272727
199 0 1896 15 12 1.6 2 8 12 1.25
200 0 1906 15 7 2.0 3 10 7 0.7
201 0 1913 15 8 2.0 3 10 8 0.925
202 0 1920 15 11 1.1428571428571428 2 8 11 1.375
202 0 399 1543 11 2.5 9 20 1 0.05
203 0 1930 15 7 1.8 3 9 7 0.7777777777777777
204 0 1936 15 7 1.8 3 9 7 1.0555555555555556
205 0 1944 15 9 1.2 2 6 9 0.9666666666666666
206 0 1953 15 6 1.4285714285714286 2 10 6 0.8666666666666667
207 0 1960 15 11 1.5 2 6 11 1.3333333333333333
208 0 1970 15 8 1.5714285714285714 3 11 8 0.7272727272727273
209 0 1976 15 10 1.5714285714285714 3 11 10 0.9727272727272726
210 0 1984 15 8 1.6666666666666667 3 10 8 1.0142857142857142
211 0 1993 15 15 1.4 2 7 15 1.1523809523809523
212 0 2000 15 8 2.5 4 15 8 0.8833333333333333
213 0 2009 15 9 1.1428571428571428 2 8 9 0.95
213 0 1222 805 9 2.5714285714285716 4 18 1 0.05555555555555555
214 0 2016 15 8 2.0 3 10 8 0.925
215 0 2024 15 12 1.6 2 8 12 1.1931818181818183
216 0 2032 15 8 2.2 3 11 8 0.9318181818181819
217 0 2040 15 7 1.6 3 8 7 0.75
218 0 2048 15 10 2.0 3 10 10 1.125
219 0 2056 15 9 2.0 5 8 9 1.125
220 0 2064 15 6 1.6 3 8 6 1.05
221 0 2072 15 10 1.25 2 5 10 1.0181818181818183
222 0 2080 15 5 1.8333333333333333 3 11 5 0.6818181818181819
223 0 2088 15 11 1.2 2 6 11 1.2272727272727273
224 0 2096 15 12 1.5714285714285714 4 11 12 0.965034965034965
225 0 2104 15 14 2.6 4 13 14 1.0769230769230769
226 0 2119 8 10 1.3333333333333333 2 8 1 0.125
226 0 2112 15 10 1.8571428571428572 3 13 9 0.9807692307692308
227 0 2120 15 5 1.3333333333333333 2 8 5 0.6964285714285714
228 0 2128 15 11 1.4 2 7 11 1.1558441558441557
229 0 2136 15 9 1.375 2 11 9 0.8727272727272726
230 0 2144 15 8 1.4285714285714286 2 10 8 1.2
231 0 2156 12 6 1.6 2 8 1 0.125
231 0 2153 15 6 1.6666666666666667 2 5 5 0.7
231 0 394 1778 6 2.5 9 20 1 0.05
231 0 367 1805 6 2.857142857142857 10 20 1 0.05
232 0 2160 15 11 1.6 2 8 11 1.175
233 0 2169 15 10 1.6666666666666667 2 10 10 1.088888888888889
234 0 2176 15 12 1.8 2 9 12 0.9572649572649572
235 0 2184 15 15 2.1666666666666665 4 13 15 0.9663461538461539
236 0 2192 15 13 2.6666666666666665 3 16 13 0.8541666666666665
237 0 2200 15 8 2.142857142857143 3 15 8 0.8333333333333333
238 0 2208 15 9 1.2 2 6 9 1.3571428571428568
239 0 2216 15 9 1.0 1 7 9 0.9428571428571428
240 0 2224 15 7 1.6666666666666667 3 10 7 0.7555555555555555
241 0 2247 7 11 2.142857142857143 3 15 1 0.06666666666666667
241 0 2232 15 11 2.25 3 9 11 1.3194444444444444
241 0 550 1704 11 1.625 3 13 1 0.07692307692307693
242 0 2240 15 10 1.6 2 8 9 0.6583333333333333
243 0 2248 15 11 2.142857142857143 3 15 11 1.4
244 0 2258 15 15 2.375 4 19 15 0.7894736842105263
244 0 1535 739 15 2.4285714285714284 5 17 1 0.058823529411764705
244 0 1223 1051 15 2.5714285714285716 4 18 1 0.05555555555555555
245 0 2264 15 15 2.375 4 19 15 1.1271929824561402
246 0 2273 15 13 1.7142857142857142 3 12 13 1.0833333333333333
247 0 2282 15 4 1.4 2 7 4 0.5714285714285714
248 0 2288 15 13 1.4 2 7 13 1.1428571428571428
249 0 2296 15 10 2.3333333333333335 3 14 10 1.1428571428571426
250 0 2305 15 7 1.4 2 7 7 0.8928571428571428
251 0 2312 15 8 1.6 2 8 8 1.25
252 0 2322 15 7 1.7142857142857142 3 12 7 0.5833333333333333
253 0 2328 15 10 1.7142857142857142 3 12 10 0.9166666666666665
253 0 1640 708 10 3.4 9 17 1 0.058823529411764705
254 0 2336 15 13 1.25 2 10 13 1.3888888888888888
255 0 2344 15 5 1.8 3 9 5 0.47474747474747475
256 0 2352 15 16 1.8333333333333333 3 11 16 1.4545454545454546
257 0 2361 15 8 2.2 4 11 8 0.7818181818181819
258 1 2368 15 16 1.6666666666666667 4 10 16 1.0666666666666667
259 0 2377 15 11 3.0 8 18 11 0.8247863247863249
260 0 2384 15 10 1.8571428571428572 3 13 10 0.8671328671328671
261 0 2400 7 9 1.4 3 7 1 0.14285714285714285
261 0 2392 15 9 1.8333333333333333 3 11 9 1.0779220779220777
262 0 2400 15 10 1.4 3 7 9 0.9428571428571428
263 0 2409 15 8 1.25 2 10 8 0.7454545454545455
264 0 2416 15 9 2.2 5 11 9 0.9545454545454546
265 0 2424 15 9 1.6 2 8 9 1.125
266 0 2432 15 10 1.6 2 8 10 1.0113636363636362
267 0 2440 15 10 1.5714285714285714 3 11 10 0.8636363636363638
268 0 2448 15 12 2.0 3 12 12 1.1666666666666665
269 0 2456 15 7 1.5 3 9 7 0.8333333333333333
270 0 2473 9 14 2.0 4 12 1 0.08333333333333333
270 0 2464 15 14 2.0 4 8 14 1.3333333333333333
271 0 2486 3 8 2.1666666666666665 4 13 1 0.07692307692307693
271 0 2480 11 8 1.4 2 7 1 0.14285714285714285
271 0 2473 15 8 2.0 4 12 7 0.9404761904761902
272 0 2483 15 13 2.1666666666666665 4 13 11 0.8461538461538463
273 0 2489 15 12 2.1666666666666665 4 13 12 0.8102564102564103
273 0 1640 870 12 3.4 9 17 1 0.058823529411764705
274 0 2496 15 13 1.875 5 15 13 1.0166666666666666
275 0 2504 15 15 2.4 4 12 15 1.0
276 0 2512 15 8 2.0 3 16 8 0.75
277 0 2520 15 14 2.0 4 8 14 1.3333333333333333
278 0 2528 15 9 2.4 6 12 9 0.9444444444444444
279 0 2536 15 15 1.8 3 9 15 1.0888888888888888
280 0 2544 15 10 2.5 4 15 10 0.8606060606060606
281 0 2553 15 12 1.5714285714285714 3 11 12 0.965034965034965
282 0 2560 15 14 2.1666666666666665 4 13 14 0.9326923076923077
283 0 2568 15 16 2.0 3 16 16 1.0416666666666665
284 0 2576 15 13 2.142857142857143 3 15 13 1.1333333333333335
284 0 1143 1450 13 2.3333333333333335 4 14 1 0.07142857142857142
285 0 2584 15 8 2.0 5 10 8 0.95
286 0 2592 15 9 1.3333333333333333 2 8 9 0.8863636363636364
287 0 2600 15 12 1.5714285714285714 3 11 12 1.2525252525252526
288 0 2608 15 12 1.5 3 9 12 0.9572649572649572
289 0 2616 15 12 2.1666666666666665 4 13 12 0.8681318681318682
290 0 2624 15 12 2.0 3 14 12 0.901098901098901
291 0 2647 4 14 2.125 3 17 1 0.058823529411764705
291 0 2632 15 14 1.8571428571428572 4 13 14 1.2846153846153847
292 0 2641 15 16 1.6666666666666667 3 10 15 0.9235294117647059
293 0 2649 15 8 2.125 3 17 8 0.8676470588235294
294 0 2657 15 6 2.0 4 8 6 0.9166666666666666
295 0 2664 15 10 1.5 2 6 10 0.9487179487179487
296 0 2672 15 7 2.6 8 13 7 0.7094017094017093
297 0 2680 15 8 1.5 3 9 8 1.4444444444444444
298 0 2690 15 7 1.5 3 9 7 0.7777777777777778
299 0 2697 15 13 1.5 3 9 13 0.9555555555555555
300 0 2704 15 10 2.142857142857143 4 15 10 1.1238095238095238
301 0 2713 15 7 1.4 3 7 7 0.6883116883116883
302 0 2720 15 10 1.8333333333333333 3 11 10 1.2878787878787878
302 0 1504 1236 10 1.6 2 8 1 0.125
303 0 2729 15 11 1.5 2 6 11 0.8809523809523809
303 0 2374 373 11 3.0 8 18 1 0.05555555555555555
304 0 2736 15 10 2.0 4 14 10 0.9523809523809523
305 0 2744 15 7 1.2857142857142858 2 9 7 1.1333333333333333
306 0 2752 15 7 1.0 1 5 7 0.95
307 0 2760 15 11 2.0 4 8 11 1.0681818181818183
308 0 2769 15 8 2.75 4 11 8 1.0389610389610389
309 0 2776 15 4 1.75 3 7 4 0.7428571428571429
310 0 2785 15 12 1.6666666666666667 3 5 12 0.9882352941176471
311 0 2792 15 7 2.8333333333333335 9 17 7 0.7254901960784315
312 0 2801 15 8 1.2857142857142858 2 9 8 0.9583333333333333
313 0 2808 15 8 1.3333333333333333 3 8 8 1.0
314 0 2816 15 10 1.3333333333333333 2 8 10 0.9583333333333333
315 0 2824 15 11 2.0 4 12 11 1.0166666666666666
316 0 2832 15 12 2.0 4 10 12 1.2888888888888888
317 0 2841 15 5 1.5 2 9 5 0.911111111111111
318 0 2849 15 8 1.6666666666666667 2 5 8 0.9777777777777777
319 0 2856 15 9 1.8 3 9 9 1.0972222222222223
320 0 2865 15 12 1.6 2 8 12 1.0416666666666665
321 0 2873 15 12 1.7142857142857142 3 12 12 0.9294871794871795
322 0 2880 15 5 2.6 4 13 5 0.7538461538461538
323 0 2888 15 9 1.0 1 5 9 1.1777777777777776
324 0 2901 12 13 2.142857142857143 5 15 1 0.06666666666666667
324 0 2896 15 13 1.8 3 9 12 0.8888888888888888
325 0 2904 15 13 2.142857142857143 5 15 13 0.9095238095238094
326 0 2912 15 9 2.8 5 14 9 1.0238095238095237
327 0 2925 10 7 1.5 2 6 1 0.16666666666666666
327 0 2920 15 7 2.0 2 6 6 0.9999999999999999
328 0 2929 15 9 1.5 2 6 9 1.0555555555555554
329 0 2937 15 11 1.8 3 9 11 0.9444444444444445
330 0 2944 15 6 2.0 4 12 6 0.6666666666666666
331 0 2952 15 11 1.6 2 8 11 1.2
332 0 2960 15 8 2.0 4 10 8 0.925
333 0 2968 15 11 1.3333333333333333 2 8 11 1.175
334 0 2977 15 8 1.6666666666666667 3 10 8 0.8
335 0 2984 15 11 2.0 3 10 11 1.0363636363636364
336 0 2992 15 12 1.8333333333333333 5 11 12 1.0303030303030305
337 0 3000 15 9 1.7142857142857142 4 12 9 0.8888888888888891
338 1 3008 15 16 1.5 2 9 16 1.2444444444444442
339 0 3016 15 8 1.875 3 15 8 0.8833333333333333
340 0 3024 15 8 1.6 2 8 8 0.9166666666666666
341 0 3032 15 13 1.5 2 9 13 1.3333333333333333
342 0 3043 15 5 1.4 3 7 5 0.7142857142857142
343 0 3049 15 11 1.4 3 7 11 1.0357142857142856
344 0 3056 15 11 1.7142857142857142 3 12 11 1.1388888888888888
345 0 3065 15 8 1.8 3 9 8 0.5486111111111112
346 0 3072 15 12 2.6666666666666665 8 16 12 1.0902777777777777
346 0 1407 1686 12 2.0 4 16 1 0.0625
347 0 3081 15 13 1.5 3 9 13 1.2222222222222223
348 0 3090 15 8 2.5 4 10 8 0.7999999999999999
349 0 3096 15 5 2.5 4 10 5 0.7
350 0 3104 15 16 1.2 2 6 16 1.2647058823529413
351 0 3112 15 16 2.4285714285714284 5 17 16 1.1583710407239818
352 0 3120 15 7 2.1666666666666665 3 13 7 0.9340659340659341
353 0 3128 15 11 1.4 2 7 11 0.8095238095238095
354 0 3136 15 14 3.0 8 15 14 0.8
355 0 3144 15 15 2.25 4 18 15 1.2333333333333334
356 0 3153 15 13 2.5 3 10 13 0.8999999999999999
357 0 3169 11 10 2.0 4 12 1 0.08333333333333333
357 0 3160 15 10 2.142857142857143 3 15 10 0.7833333333333333
358 1 3168 15 16 2.0 4 12 15 0.9122807017543859
359 0 3176 15 15 2.7142857142857144 3 19 15 1.0657894736842104
360 0 3184 15 10 2.0 3 12 10 1.0277777777777777
361 1 3192 15 16 1.2857142857142858 3 9 16 1.0457516339869282
361 1 1510 1697 16 2.75 4 22 1 0.045454545454545456
362 0 3200 15 11 2.4285714285714284 4 17 11 0.9358288770053476
363 0 3208 15 8 1.8333333333333333 2 11 8 0.7818181818181819
364 0 3216 15 11 1.6666666666666667 4 10 11 1.1777777777777778
365 0 3224 15 13 1.8 3 9 13 1.007936507936508
366 0 3233 15 10 2.0 3 14 10 0.992063492063492
367 0 3240 15 7 1.2857142857142858 2 9 7 0.9365079365079365
368 0 3249 15 9 1.4 3 7 9 0.869047619047619
369 0 3256 15 11 2.4 4 12 11 0.8782051282051282
370 0 3264 15 15 4.333333333333333 10 13 15 0.9663461538461539
371 0 3272 15 11 2.2857142857142856 4 16 11 0.8541666666666667
372 0 3280 15 12 1.5 2 12 12 1.1333333333333333
373 0 3289 15 9 2.0 3 10 9 1.075
374 0 3296 15 7 1.3333333333333333 2 8 7 0.625
375 0 3304 15 11 2.0 5 12 11 1.125
376 0 3312 15 16 1.3333333333333333 3 8 16 1.3035714285714284
377 0 3320 15 7 2.3333333333333335 5 14 7 0.7380952380952381
378 0 3328 15 7 1.8 2 9 7 0.9047619047619047
379 0 3336 15 7 1.4 2 7 7 0.9999999999999998
380 0 3361 4 13 2.0 3 14 1 0.07142857142857142
380 0 3344 15 13 2.3333333333333335 5 7 13 1.1978021978021978
381 0 3352 15 15 1.8571428571428572 3 13 15 1.0879120879120878
382 0 3361 15 14 2.0 3 14 13 0.9285714285714286
383 0 3368 15 13 2.3333333333333335 4 14 13 1.0595238095238095
383 0 3259 131 13 4.333333333333333 10 13 1 0.07692307692307693
384 0 3376 15 9 2.0 3 12 9 0.8106060606060606
385 0 3384 15 13 1.8333333333333333 3 11 13 0.8282828282828283
386 1 3392 15 16 2.25 5 18 16 0.9215686274509804
387 0 3400 15 9 2.8333333333333335 9 17 9 0.9264705882352942
388 0 3409 15 11 1.3333333333333333 2 8 11 0.8928571428571428
389 0 3416 15 12 2.0 3 14 12 1.2321428571428572
390 0 3424 15 10 1.1428571428571428 2 8 10 0.6875
391 0 3432 15 14 2.2857142857142856 4 16 14 0.9759615384615385
391 0 3175 279 14 2.7142857142857144 3 19 1 0.05263157894736842
392 1 3440 15 16 2.1666666666666665 5 13 16 1.1282051282051282
393 0 3448 15 12 2.142857142857143 5 15 12 1.0181818181818183
394 0 3456 15 12 1.375 2 11 12 0.9510489510489512
395 0 3464 15 8 1.8571428571428572 4 13 8 0.7863247863247864
396 0 3472 15 12 1.2857142857142858 2 9 12 1.3333333333333333
397 0 3480 15 10 1.8 3 9 10 0.9292929292929293
398 0 3488 15 7 2.2 4 11 7 1.0151515151515151
399 0 3496 15 7 1.2 2 6 7 0.7666666666666666
400 0 3504 15 11 2.0 3 10 11 1.275
401 0 3512 15 9 2.0 3 8 9 0.8522727272727274
402 0 3520 15 11 1.8333333333333333 3 11 11 1.2727272727272727
403 0 3530 15 6 1.6 2 8 6 0.75
404 0 3536 15 9 1.6 2 8 9 0.9500000000000001
405 0 3544 15 6 2.0 2 10 6 0.8999999999999999
406 0 3552 15 10 1.0 1 5 10 1.2
407 0 3560 15 8 2.0 3 10 8 1.057142857142857
408 0 3569 15 8 1.4 2 7 8 0.9206349206349205
409 0 3576 15 9 1.5 3 9 9 1.0972222222222223
410 0 3584 15 11 2.0 3 8 11 0.7916666666666667
411 0 3592 15 15 2.142857142857143 4 15 15 1.0
412 0 3600 15 14 2.142857142857143 4 15 14 1.1515151515151518
412 0 1676 1944 14 3.4 11 17 1 0.058823529411764705
412 0 1510 2106 14 2.75 4 22 1 0.045454545454545456
412 0 394 3226 14 2.5 9 20 1 0.05
413 0 3608 15 7 1.375 3 11 7 1.0151515151515151
414 0 3616 15 4 1.5 2 6 4 0.5952380952380952
415 0 3624 15 11 1.75 2 7 11 1.1547619047619047
416 0 3632 15 9 1.7142857142857142 4 12 9 1.4166666666666665
417 0 3642 15 7 1.75 3 7 7 1.0
418 0 3650 15 6 1.6 2 8 6 0.75
419 1 3656 15 16 1.6 2 8 16 1.0277777777777777
420 0 3664 15 12 3.0 4 18 12 0.9444444444444444
421 0 3672 15 10 2.0 3 12 10 1.0555555555555554
422 0 3681 15 8 1.8 3 9 8 1.1111111111111112
423 0 3706 4 9 2.5714285714285716 5 18 1 0.05555555555555555
423 0 3690 15 9 1.4285714285714286 2 10 9 0.8999999999999999
424 0 3697 15 9 1.4285714285714286 2 10 9 0.8272727272727274
425 1 3709 11 16 2.5714285714285716 5 18 1 0.05555555555555555
425 1 3704 15 16 1.5714285714285714 2 11 14 0.8838383838383839
425 1 2370 1352 16 3.0 8 18 1 0.05555555555555555
426 0 3712 15 5 2.5714285714285716 5 18 5 0.7111111111111111
427 0 3720 15 12 1.6666666666666667 3 5 12 1.1142857142857143
428 0 3728 15 10 1.75 3 14 10 0.8857142857142857
429 0 3736 15 11 1.6666666666666667 3 10 11 1.3999999999999997
430 0 3746 15 9 2.2 4 11 9 0.8181818181818182
431 0 3752 15 6 2.2 4 11 6 0.9818181818181819
432 0 3761 15 5 1.25 2 5 5 0.7714285714285714
433 0 3768 15 14 1.0 1 7 14 1.0396825396825395
434 0 3776 15 16 2.5714285714285716 4 18 16 1.0811965811965811
435 0 3784 15 14 2.1666666666666665 5 13 14 1.021978021978022
436 0 3792 15 11 2.3333333333333335 6 14 11 0.9220779220779222
437 0 3800 15 11 1.5714285714285714 3 11 11 0.9020979020979021
438 0 3808 15 10 1.8571428571428572 3 13 10 1.2615384615384615
439 0 3829 2 6 2.0 4 16 1 0.0625
439 0 3816 15 6 1.0 1 5 6 0.9142857142857141
440 0 3824 15 14 1.75 4 7 13 0.9732142857142857
441 0 3832 15 11 2.0 4 16 11 1.25
442 0 3842 15 6 1.8333333333333333 3 11 6 0.5454545454545454
443 0 3848 15 13 1.8333333333333333 3 11 13 1.1818181818181819
444 0 3856 15 6 1.5714285714285714 3 11 6 0.8727272727272728
445 0 3864 15 9 1.25 2 5 9 1.0363636363636364
446 0 3873 15 9 2.75 4 11 9 0.7575757575757576
447 0 3881 15 8 2.4 6 12 8 0.6666666666666666
448 1 3896 7 16 2.5 5 15 1 0.06666666666666667
448 1 3888 15 16 2.0 4 12 16 1.15
449 0 3896 15 11 2.5 5 15 10 0.9333333333333332
449 0 3174 744 11 2.7142857142857144 3 19 1 0.05263157894736842
450 0 3904 15 8 1.6666666666666667 3 10 8 1.057142857142857
451 0 3913 15 14 1.4 2 7 14 1.0095238095238095
452 0 3920 15 10 2.142857142857143 3 15 10 0.8606060606060607
453 0 3929 15 11 2.75 4 11 11 1.0727272727272728
454 0 3936 15 12 1.4285714285714286 3 10 12 1.0333333333333332
455 0 3944 15 7 2.0 4 12 7 0.7916666666666666
456 0 3952 15 10 1.6 2 8 10 1.1527777777777777
457 0 3960 15 15 1.5 2 9 15 1.2222222222222223
458 0 3970 15 10 2.5 5 15 10 0.6666666666666666
459 1 3976 15 16 2.5 5 15 16 1.0208333333333335
460 0 3984 15 9 2.2857142857142856 4 16 9 1.1875
461 0 3994 15 12 1.75 3 14 12 0.8571428571428572
462 0 4000 15 7 1.75 3 14 7 0.857142857142857
463 0 4008 15 9 1.75 3 7 9 1.1607142857142856
464 0 4017 15 6 2.0 3 8 6 0.8392857142857142
465 0 4024 15 15 1.1666666666666667 2 7 15 1.0982142857142856
466 0 4032 15 12 3.2 5 16 12 1.0056818181818181
467 0 4040 15 10 1.8333333333333333 3 11 10 0.7972027972027973
468 0 4048 15 12 2.1666666666666665 4 13 12 1.0846153846153848
469 0 4056 15 12 1.4285714285714286 3 10 12 1.05
470 0 4065 15 13 2.0 4 12 13 1.0833333333333333
471 0 4072 15 9 1.7142857142857142 3 12 9 0.9444444444444444
472 0 4080 15 10 1.8 2 9 10 0.888888888888889
473 0 4089 15 16 1.7142857142857142 3 12 16 1.1904761904761902
474 0 4097 15 8 2.3333333333333335 4 14 8 0.6883116883116884
475 0 4104 15 12 1.8333333333333333 3 11 12 1.2323232323232325
476 0 4112 15 10 3.0 4 9 10 0.9494949494949495
477 0 4132 5 9 2.4 3 12 1 0.08333333333333333
477 0 4120 15 9 1.8333333333333333 3 11 9 1.1298701298701297
478 0 4128 15 11 1.75 3 7 10 0.8928571428571429
479 0 4136 15 11 2.4 3 12 11 0.8095238095238093
479 0 3447 707 11 2.142857142857143 5 15 1 0.06666666666666667
480 0 4144 15 11 1.75 3 14 11 1.357142857142857
481 0 4154 15 11 2.1666666666666665 4 13 11 0.8461538461538463
482 0 4160 15 8 2.1666666666666665 4 13 8 0.9038461538461539
483 0 4168 15 7 1.6 2 8 7 0.75
484 0 4176 15 8 1.4285714285714286 4 10 8 1.0999999999999999
485 0 4185 15 8 1.25 2 5 8 1.0666666666666667
486 0 4192 15 12 1.2857142857142858 3 9 12 1.0833333333333333
487 0 4200 15 6 2.0 4 12 6 0.75
488 0 4208 15 9 1.5 2 6 9 1.25
489 0 4218 13 8 3.0 6 12 1 0.08333333333333333
489 0 4216 15 8 1.6 3 8 7 0.6666666666666666
490 0 4224 15 11 3.0 6 12 11 1.0555555555555556
491 0 4232 15 13 2.25 4 9 13 1.2626262626262628
492 0 4240 15 9 2.2 4 11 9 1.0568181818181819
493 0 4248 15 8 1.3333333333333333 3 8 8 0.7083333333333333
494 0 4256 15 15 2.4 4 12 15 1.1858974358974357
495 0 4264 15 6 1.8571428571428572 3 13 6 0.7307692307692307
496 0 4272 15 12 1.2 2 6 12 1.4000000000000004
497 0 4281 15 7 1.4285714285714286 2 10 7 0.6454545454545455
498 0 4288 15 12 2.75 5 11 12 1.0378787878787878
499 0 4296 15 10 1.7142857142857142 3 12 10 1.1309523809523807
500 0 4305 15 12 1.4 2 7 12 0.9523809523809523
501 0 4312 15 14 2.142857142857143 3 15 14 1.0833333333333335
502 0 4320 15 8 2.0 3 12 8 0.875
503 0 4328 15 13 1.3333333333333333 3 8 13 1.0
504 0 4336 15 16 2.6666666666666665 6 16 16 1.0892857142857142
505 0 4344 15 6 2.3333333333333335 3 14 6 1.2857142857142856
506 0 4354 15 6 1.3333333333333333 2 8 6 0.75
507 0 4360 15 7 1.3333333333333333 2 8 7 0.9642857142857142
508 0 4368 15 13 1.4 2 7 13 1.019047619047619
509 0 4393 1 11 2.875 12 23 1 0.043478260869565216
509 0 4376 15 11 2.5 4 15 11 1.2666666666666666
510 0 4386 15 10 2.875 12 23 10 0.43478260869565216
511 0 4392 15 16 2.875 12 23 15 0.903726708074534
512 0 4400 15 16 2.0 4 14 16 1.2738095238095237
513 0 4408 15 6 2.0 4 12 6 0.7083333333333333
514 0 4417 15 14 1.3333333333333333 2 8 14 1.0625
515 0 4431 14 13 2.25 4 9 1 0.1111111111111111
515 0 4424 15 13 2.2857142857142856 4 16 12 1.090277777777778
516 0 4433 15 12 2.25 4 9 12 0.8444444444444443
517 0 4440 15 15 2.142857142857143 4 15 15 0.9541666666666666
518 0 4448 15 9 2.6666666666666665 5 16 9 0.9791666666666665
519 0 4457 15 6 1.2 2 6 6 1.1333333333333333
520 0 4465 15 7 1.25 2 5 7 1.2
521 0 4474 15 10 2.0 3 10 10 1.0
522 0 4482 15 5 1.6 2 8 5 0.625
523 0 4488 15 5 1.6 2 8 5 1.375
524 0 4498 15 9 1.8333333333333333 3 11 9 0.8181818181818181
525 0 4516 4 8 2.2 4 11 1 0.09090909090909091
525 0 4505 15 8 1.8333333333333333 3 11 8 0.9318181818181819
526 0 4512 15 12 1.6 3 8 11 1.0681818181818183
527 0 4521 15 6 2.2 4 11 6 0.9242424242424241
528 0 4528 15 7 2.0 3 6 7 0.7666666666666666
529 0 4536 15 11 1.6666666666666667 3 10 11 1.1
530 0 4544 15 7 2.0 4 10 7 1.1
531 0 4553 15 7 1.25 2 5 7 0.8666666666666667
532 0 4560 15 8 1.8 3 9 8 0.9583333333333333
533 0 4568 15 13 1.6 3 8 13 1.0892857142857142
534 0 4576 15 11 2.0 3 14 11 0.8690476190476191
535 0 4584 15 16 2.0 4 12 16 1.2628205128205128
536 0 4592 15 10 1.8571428571428572 4 13 10 0.6538461538461539
537 0 4600 15 9 3.2 9 16 9 1.0
538 0 4609 15 10 1.3333333333333333 2 8 10 0.9431818181818181
539 0 4617 15 12 1.8333333333333333 3 11 12 1.0151515151515151
540 0 4624 15 5 2.0 4 12 5 0.9166666666666666
541 0 4641 7 8 2.4 5 12 1 0.08333333333333333
541 0 4633 15 8 1.3333333333333333 2 4 8 0.8333333333333333
542 0 4640 15 14 2.4 5 12 13 1.3333333333333335
543 0 4650 15 11 1.875 3 15 11 0.7333333333333333
544 0 4656 15 13 1.875 3 15 13 1.084848484848485
544 0 3711 965 13 2.5714285714285716 5 18 1 0.05555555555555555
545 0 4664 15 9 1.5714285714285714 3 11 9 1.0568181818181819
546 0 4673 15 4 1.6 3 8 4 0.4583333333333333
547 1 4680 15 16 1.8 3 9 16 1.0444444444444443
548 0 4688 15 14 2.5 4 20 14 1.0666666666666667
549 0 4697 15 8 2.0 4 12 8 0.9583333333333333
550 0 4704 15 12 1.3333333333333333 2 8 12 0.9107142857142856
551 0 4713 15 12 2.0 3 14 12 0.9642857142857143
552 0 4720 15 14 1.7142857142857142 2 12 14 1.0961538461538463
552 0 4391 349 14 2.875 12 23 1 0.043478260869565216
553 0 4728 15 11 2.1666666666666665 4 13 11 0.8461538461538463
554 0 4736 15 10 2.6 5 13 10 1.1648351648351647
555 0 4745 15 6 1.75 4 7 6 0.6428571428571429
556 0 4752 15 14 1.6666666666666667 2 10 14 1.3181818181818183
557 0 4761 15 9 1.8333333333333333 4 11 9 0.9595959595959596
558 0 4769 15 8 1.8 3 9 8 0.7676767676767677
558 0 3399 1390 8 2.8333333333333335 9 17 1 0.058823529411764705
559 1 4776 15 16 1.5714285714285714 2 11 16 1.1016042780748663
560 0 4784 15 7 2.4285714285714284 4 17 7 0.7478991596638656
561 0 4793 15 7 1.75 3 7 7 0.9285714285714286
561 0 1485 3326 7 2.5714285714285716 9 18 1 0.05555555555555555
562 0 4800 15 10 1.6 3 8 10 1.1
563 0 4808 15 9 1.6666666666666667 2 10 9 1.2333333333333334
564 0 4817 15 9 1.2 2 6 9 0.9666666666666666
565 0 4824 15 10 1.6666666666666667 3 10 10 0.9272727272727275
566 0 4832 15 10 1.8333333333333333 3 11 10 1.1477272727272727
567 0 4841 15 12 1.6 3 8 12 0.9107142857142856
568 0 4848 15 12 2.3333333333333335 4 14 12 0.9065934065934065
568 0 3072 1797 12 2.6666666666666665 8 16 1 0.0625
569 1 4856 15 16 2.1666666666666665 4 13 16 1.0576923076923077
570 0 4864 15 7 2.6666666666666665 4 16 7 0.6875
571 0 4872 15 9 1.6 2 8 9 1.3333333333333333
572 0 4881 15 7 1.5 2 6 7 0.7666666666666666
573 0 4888 15 6 1.4285714285714286 3 10 6 0.6857142857142857
574 1 4896 15 16 1.1666666666666667 2 7 16 1.4017857142857142
575 0 4904 15 15 2.0 4 16 15 1.1666666666666665
576 0 4912 15 4 1.7142857142857142 3 12 4 0.41666666666666663
577 0 4920 15 15 1.5 3 9 15 1.6666666666666667
578 0 4932 15 3 1.2 2 6 3 0.5
579 0 4937 15 12 1.2 2 6 12 1.3181818181818181
580 0 4944 15 10 2.2 5 11 10 0.7972027972027972
581 0 4952 15 7 1.625 3 13 7 0.5274725274725275
582 0 4960 15 15 2.3333333333333335 8 14 15 1.1666666666666667
583 0 4968 15 9 1.7142857142857142 3 12 9 1.1666666666666667
584 0 4977 15 9 1.2 2 6 9 0.8333333333333333
585 0 4984 15 13 1.7142857142857142 3 12 13 0.976190476190476
586 0 4992 15 14 2.8 5 14 14 1.2571428571428571
587 0 5000 15 11 1.6666666666666667 3 10 11 0.9333333333333333
588 0 5008 15 8 2.4 3 12 8 1.0238095238095237
589 0 5027 7 14 1.375 3 11 1 0.09090909090909091
589 0 5017 15 14 1.4 2 7 14 0.9553571428571428
590 0 5024 15 12 2.0 4 16 11 0.9147727272727273
591 0 5033 15 10 1.375 3 11 10 0.8484848484848484
592 0 5040 15 9 2.4 5 12 9 1.3333333333333333
593 0 5050 15 9 1.5 3 9 9 1.0
594 0 5058 15 9 1.5 4 12 9 0.75
595 0 5064 15 5 1.5 4 12 5 0.9166666666666665
596 0 5072 15 6 1.0 1 3 6 1.3333333333333335
597 0 5082 15 12 2.0 4 14 12 0.857142857142857
597 0 4685 415 12 2.5 4 20 1 0.05
598 0 5089 15 8 2.0 4 14 8 0.9999999999999999
598 0 4595 509 8 3.2 9 16 1 0.0625
599 0 5096 15 15 1.1666666666666667 2 7 15 0.9206349206349207
600 0 5104 15 10 2.25 3 18 10 0.9722222222222222
601 0 5112 15 9 1.6 3 8 9 0.8333333333333334
602 1 5120 15 16 2.0 3 12 16 1.0833333333333333
603 0 5128 15 14 2.0 3 16 14 1.0833333333333333
604 0 5136 15 12 1.5 3 12 12 1.0
605 0 5144 15 8 1.5 2 12 8 0.9166666666666666
606 0 5152 15 9 1.6 2 8 9 1.027777777777778
607 0 5160 15 9 2.25 3 9 9 1.0972222222222223
608 0 5168 15 11 1.6 3 8 11 0.9583333333333334
609 0 5176 15 9 1.7142857142857142 3 12 9 1.1666666666666665
610 0 5187 15 11 2.6 5 13 11 0.8461538461538463
611 0 5192 15 7 2.6 5 13 7 0.868131868131868
612 0 5200 15 7 1.4 3 7 7 0.9999999999999998
613 0 5208 15 12 1.75 2 7 12 1.1190476190476188
614 0 5216 15 15 1.7142857142857142 3 12 15 1.0952380952380953
615 0 5225 15 7 2.0 3 14 7 0.9285714285714285
616 0 5233 15 10 1.1666666666666667 2 7 10 0.6165413533834585
617 1 5240 15 16 3.8 10 19 16 0.9964912280701754
618 0 5248 15 12 2.142857142857143 4 15 12 1.1
619 0 5257 15 5 1.4285714285714286 3 10 5 0.7666666666666666
620 0 5264 15 3 1.5 2 6 3 0.6666666666666666
621 0 5272 15 6 1.0 1 3 6 1.3333333333333333
622 0 5281 15 7 1.5 2 6 7 0.7499999999999999
