EventIdCIC/I:CICStatus:BxCBC:Latency:StubsAtInput:StubsPerFE/F:MaxStubsPerFE:StubsPerEvent:MatchedStubs:DetectionEfficiency/F
0 0 304 15 4 1.0 1 4 4 1.0
1 0 312 15 7 1.4 3 7 7 1.0
2 0 334 8 13 2.7142857142857144 7 19 1 0.05263157894736842
2 0 320 15 13 1.625 3 13 13 1.0
3 0 328 15 16 2.7142857142857144 7 19 15 0.7894736842105263
4 0 336 15 16 2.2857142857142856 4 16 16 1.0
5 0 344 15 13 1.8571428571428572 3 13 13 1.0
6 0 352 15 10 1.6666666666666667 3 10 10 1.0
7 0 361 15 12 1.7142857142857142 2 12 12 1.0
8 0 368 15 3 1.0 1 3 3 1.0
9 0 376 15 9 1.5 3 9 9 1.0
10 0 386 15 6 1.5 2 6 6 0.9999999999999999
11 0 394 15 8 1.6 3 8 8 1.0
12 0 401 15 10 2.5 5 10 10 1.0000000000000002
13 0 408 15 10 1.6666666666666667 3 10 10 1.0
14 0 417 15 12 2.4 3 12 12 1.0
15 0 424 15 16 2.2857142857142856 4 16 16 1.0
16 0 433 15 9 1.5 3 9 9 1.0
17 0 440 15 10 2.0 3 10 10 1.0000000000000002
18 0 449 15 12 2.0 4 12 12 0.9999999999999999
19 0 456 15 14 2.0 3 14 14 1.0
20 0 464 15 6 1.2 2 6 6 0.9999999999999999
21 0 473 15 8 1.6 3 8 8 1.0
22 0 481 15 14 1.75 3 14 14 0.9999999999999998
23 0 488 15 5 1.25 2 5 5 1.0
24 0 497 15 3 1.0 1 3 3 1.0
25 0 516 8 10 1.8333333333333333 3 11 1 0.09090909090909091
25 0 505 15 10 1.6666666666666667 3 10 10 1.0
26 0 512 15 11 1.8333333333333333 3 11 10 0.9090909090909092
27 0 521 15 11 2.2 3 11 11 1.0
28 0 528 15 8 2.0 3 8 8 1.0
29 0 536 15 11 1.5714285714285714 3 11 11 1.0
30 0 545 15 9 1.8 3 9 9 1.0
31 0 552 15 15 2.142857142857143 4 15 15 0.9999999999999999
32 0 561 15 8 1.3333333333333333 2 8 8 1.0
33 0 580 7 15 2.857142857142857 5 20 1 0.05
33 0 568 15 15 1.875 4 15 15 1.0
34 1 581 12 16 2.857142857142857 5 20 1 0.05
34 1 577 15 16 2.857142857142857 5 20 14 0.7000000000000001
35 0 584 15 9 1.8 3 9 9 1.0
36 0 592 15 8 1.6 4 8 8 1.0
37 0 603 15 6 1.2 2 6 6 1.0
38 0 609 15 9 1.8 3 9 9 1.0
39 0 616 15 8 1.6 3 8 8 1.0
40 0 624 15 11 1.5714285714285714 3 11 11 1.0
41 0 632 15 15 2.142857142857143 4 15 15 1.0
42 0 640 15 11 1.5714285714285714 4 11 11 1.0
43 0 648 15 5 1.25 2 5 5 1.0
44 0 657 15 8 1.6 2 8 8 1.0
45 0 664 15 7 1.4 2 7 7 0.9999999999999999
46 0 672 15 14 2.0 4 14 14 0.9999999999999999
47 0 681 15 10 2.0 3 10 10 1.0
48 0 688 15 8 1.6 2 8 8 1.0
49 0 696 15 10 1.6666666666666667 2 10 10 0.9999999999999999
50 0 705 15 10 1.4285714285714286 3 10 10 1.0000000000000002
51 0 712 15 9 1.5 3 9 9 1.0000000000000002
52 0 720 15 9 1.8 3 9 9 0.9999999999999999
53 0 728 15 7 2.3333333333333335 4 7 7 1.0
54 0 736 15 13 2.6 5 13 13 1.0
55 0 744 15 11 1.8333333333333333 3 11 11 1.0
56 0 753 15 10 2.0 4 10 10 0.9999999999999999
57 0 760 15 6 1.2 2 6 6 0.9999999999999999
58 0 770 15 11 1.8333333333333333 5 11 11 1.0
59 1 776 15 16 2.25 6 18 16 0.8888888888888888
60 0 784 15 7 1.4 2 7 7 0.9999999999999998
61 0 792 15 13 1.8571428571428572 4 13 13 1.0
62 0 800 15 7 1.4 3 7 7 0.9999999999999998
63 0 808 15 11 1.8333333333333333 3 11 11 1.0
64 0 827 8 10 2.8 9 14 1 0.07142857142857142
64 0 816 15 10 1.4285714285714286 2 10 10 1.0
65 0 824 15 9 2.8 9 14 8 0.5714285714285714
66 0 832 15 3 1.0 1 3 3 1.0
67 0 840 15 10 1.6666666666666667 3 10 10 1.0
68 0 848 15 11 1.8333333333333333 4 11 11 1.0
69 0 856 15 10 1.6666666666666667 2 10 10 1.0
70 0 864 15 4 1.3333333333333333 2 4 4 1.0
71 0 875 15 7 1.1666666666666667 2 7 7 1.0
72 0 880 15 10 1.6666666666666667 3 10 10 1.0
73 0 888 15 15 2.5 4 15 15 1.0
73 0 778 129 15 2.25 6 18 1 0.05555555555555555
74 0 897 15 6 1.5 2 6 6 0.9999999999999999
75 1 904 15 16 2.25 6 18 16 0.8888888888888888
76 0 912 15 6 1.5 2 6 6 1.0
77 0 920 15 11 1.5714285714285714 2 11 11 1.0
78 0 928 15 10 1.25 3 10 10 1.0
79 1 936 15 16 2.4285714285714284 4 17 16 0.9411764705882354
80 0 944 15 6 1.2 2 6 6 0.9999999999999999
81 0 952 15 11 1.8333333333333333 2 11 11 1.0
82 0 960 15 9 1.5 2 9 9 1.0
83 0 968 15 16 2.0 3 16 16 1.0
84 0 984 13 10 1.5714285714285714 2 11 1 0.09090909090909091
84 0 976 15 10 1.6666666666666667 4 10 10 1.0
85 0 984 15 11 1.5714285714285714 2 11 10 0.9090909090909092
86 0 992 15 8 1.6 3 8 8 1.0
87 0 1001 15 6 1.2 2 6 6 0.9999999999999999
88 0 1008 15 12 1.7142857142857142 4 12 12 0.9999999999999999
89 0 1016 15 10 2.0 4 10 10 1.0
90 0 1025 15 2 1.0 1 2 2 1.0
91 0 1032 15 12 1.7142857142857142 3 12 12 1.0
92 0 1040 15 11 1.8333333333333333 3 11 11 1.0
93 0 1048 15 11 2.8 8 14 11 0.7857142857142856
94 0 1056 15 12 1.7142857142857142 3 12 12 0.9999999999999999
95 0 1066 15 11 1.8333333333333333 2 11 11 1.0
96 0 1072 15 10 2.0 3 10 10 1.0
97 0 1080 15 12 2.0 4 12 12 1.0
98 0 1089 15 12 1.7142857142857142 2 12 12 1.0
99 0 1111 5 9 1.8333333333333333 3 11 1 0.09090909090909091
99 0 1097 15 9 1.5 3 9 9 1.0
100 0 1104 15 11 1.8333333333333333 3 11 10 0.9090909090909092
101 0 1112 15 13 2.1666666666666665 3 13 13 1.0000000000000002
102 0 1121 15 5 1.25 2 5 5 1.0
103 0 1129 15 10 1.6666666666666667 3 10 10 1.0
104 0 1136 15 14 2.0 4 14 14 0.9999999999999998
105 0 1164 2 16 1.4 2 7 1 0.14285714285714285
105 0 1144 15 16 2.6666666666666665 4 16 16 1.0
106 0 1153 15 10 1.4285714285714286 2 10 10 1.0
107 0 1160 15 7 1.4 2 7 6 0.8571428571428571
108 0 1169 15 8 1.1428571428571428 2 8 8 1.0
109 0 1176 15 10 1.6666666666666667 2 10 10 1.0
110 0 1184 15 16 2.0 4 16 16 1.0
111 0 1192 15 13 2.1666666666666665 3 13 13 1.0
112 0 1200 15 15 1.875 5 15 15 1.0
113 0 1208 15 13 1.625 3 13 13 1.0
114 0 1216 15 12 2.0 5 12 12 1.0
115 0 1225 15 8 1.6 3 8 8 1.0
116 0 1241 8 8 1.25 2 5 1 0.2
116 0 1233 15 8 1.6 2 8 8 1.0
117 0 1240 15 5 1.25 2 5 4 0.8
118 0 1250 15 4 1.3333333333333333 2 4 4 1.0
119 0 1256 15 14 2.0 4 14 14 0.9999999999999998
120 0 1264 15 12 2.0 4 12 12 0.9999999999999999
121 0 1272 15 10 1.6666666666666667 3 10 10 0.9999999999999999
122 0 1280 15 7 1.4 2 7 7 1.0
123 0 1288 15 12 1.7142857142857142 3 12 12 1.0
124 0 1296 15 10 1.6666666666666667 2 10 10 1.0
