EventId/I:Nstubs:FirstBx
0 9 304
1 13 312
2 12 320
3 17 328
4 7 336
5 7 344
6 8 352
7 10 360
8 12 368
9 12 376
10 6 384
11 8 392
12 11 400
13 7 408
14 9 416
15 12 424
16 5 432
17 11 440
18 8 448
19 17 456
20 12 464
21 9 472
22 16 480
23 7 488
24 12 496
25 12 504
26 10 512
27 15 520
28 5 528
29 11 536
30 16 544
31 10 552
32 6 560
33 16 568
34 12 576
35 7 584
36 9 592
37 9 600
38 13 608
39 9 616
40 8 624
41 17 632
42 12 640
43 7 648
44 13 656
45 16 664
46 8 672
47 11 680
48 6 688
49 9 696
50 9 704
51 7 712
52 9 720
53 11 728
54 11 736
55 10 744
56 11 752
57 13 760
58 12 768
59 15 776
60 12 784
61 11 792
62 11 800
63 8 808
64 10 816
65 17 824
66 6 832
67 5 840
68 8 848
69 10 856
70 7 864
71 18 872
72 7 880
73 12 888
74 13 896
75 13 904
76 7 912
77 15 920
78 7 928
79 14 936
80 13 944
81 6 952
82 6 960
83 20 968
84 12 976
85 5 984
86 18 992
87 5 1000
88 14 1008
89 10 1016
90 6 1024
91 14 1032
92 18 1040
93 7 1048
94 8 1056
95 15 1064
96 9 1072
97 7 1080
98 9 1088
99 3 1096
100 12 1104
101 17 1112
102 10 1120
103 11 1128
104 16 1136
105 11 1144
106 14 1152
107 10 1160
108 14 1168
109 9 1176
110 15 1184
111 14 1192
112 12 1200
113 20 1208
114 14 1216
115 13 1224
116 8 1232
117 10 1240
118 2 1248
119 9 1256
120 7 1264
121 6 1272
122 8 1280
123 15 1288
124 8 1296
